<svg width="100%" height="100%" viewBox="0 0 1346 1291" version="1.1"
	xmlns="http://www.w3.org/2000/svg"
	xmlns:xlink="http://www.w3.org/1999/xlink" xml:space="preserve"
	xmlns:serif="http://www.serif.com/" style="fill-rule:evenodd;clip-rule:evenodd;stroke-linejoin:round;stroke-miterlimit:2;">
	<g id="Layer2">
		<circle id="1201" cx="63.868" cy="619.463"/>
		<circle id="1101" cx="63.868" cy="674.683"/>
		<circle id="1102" cx="79.533" cy="674.683"/>
		<circle id="1103" cx="95.199" cy="674.683"/>
		<circle id="1104" cx="110.864" cy="674.683"/>
		<circle id="1105" cx="126.529" cy="674.683"/>
		<circle id="1106" cx="142.194" cy="674.683"/>
		<circle id="1107" cx="163.513" cy="670.965"/>
		<circle id="1108" cx="179.178" cy="670.965"/>
		<circle id="1109" cx="194.843" cy="670.965"/>
		<circle id="1110" cx="210.509" cy="670.965"/>
		<circle id="1111" cx="226.274" cy="670.965"/>
		<circle id="1112" cx="241.939" cy="670.965"/>
		<circle id="1150" cx="253.319" cy="669.621"/>
		<circle id="1151" cx="258.514" cy="669.597"/>
		<circle id="1152" cx="262.514" cy="669.572"/>
		<circle id="1153" cx="267.646" cy="669.548"/>
		<circle id="1154" cx="272.422" cy="669.623"/>
		<circle id="1155" cx="277.197" cy="669.599"/>
		<circle id="1156" cx="281.973" cy="669.575"/>
		<circle id="1157" cx="286.748" cy="669.55"/>
		<circle id="1158" cx="291.524" cy="669.626"/>
		<circle id="1159" cx="296.3" cy="669.601"/>
		<circle id="1160" cx="301.075" cy="669.577"/>
		<circle id="1161" cx="305.851" cy="669.553"/>
		<circle id="1162" cx="310.626" cy="669.628"/>
		<circle id="1163" cx="315.402" cy="669.604"/>
		<circle id="1164" cx="320.178" cy="669.579"/>
		<circle id="1165" cx="324.953" cy="669.555"/>
		<circle id="1166" cx="329.729" cy="669.631"/>
		<circle id="1167" cx="334.504" cy="669.606"/>
		<circle id="1168" cx="339.28" cy="669.582"/>
		<circle id="1169" cx="344.056" cy="669.557"/>
		<circle id="2100" cx="374.398" cy="668.878"/>
		<circle id="2101" cx="379.09" cy="668.97"/>
		<circle id="2102" cx="383.783" cy="668.962"/>
		<circle id="2103" cx="388.475" cy="668.955"/>
		<circle id="2104" cx="393.168" cy="668.947"/>
		<circle id="2105" cx="397.86" cy="668.94"/>
		<circle id="2106" cx="402.553" cy="668.932"/>
		<circle id="2107" cx="407.245" cy="668.925"/>
		<circle id="2108" cx="411.937" cy="668.917"/>
		<circle id="2109" cx="416.63" cy="668.91"/>
		<circle id="2110" cx="421.322" cy="668.902"/>
		<circle id="2111" cx="426.015" cy="668.895"/>
		<circle id="2120" cx="432.172" cy="664.86"/>
		<circle id="2121" cx="437.983" cy="664.872"/>
		<circle id="2122" cx="443.795" cy="664.883"/>
		<circle id="2123" cx="449.607" cy="664.895"/>
		<circle id="2124" cx="455.419" cy="664.907"/>
		<circle id="2125" cx="461.23" cy="664.919"/>
		<circle id="2126" cx="467.042" cy="664.83"/>
		<circle id="2127" cx="472.854" cy="664.842"/>
		<circle id="2128" cx="478.666" cy="664.854"/>
		<circle id="2129" cx="484.477" cy="664.865"/>
		<circle id="2140" cx="491.48" cy="667.433"/>
		<circle id="2141" cx="497.961" cy="667.414"/>
		<circle id="2142" cx="504.442" cy="667.395"/>
		<circle id="2143" cx="510.923" cy="667.376"/>
		<circle id="2144" cx="517.403" cy="667.356"/>
		<circle id="2145" cx="523.884" cy="667.337"/>
		<circle id="2146" cx="530.365" cy="667.418"/>
		<circle id="2147" cx="536.846" cy="667.399"/>
		<circle id="2148" cx="543.326" cy="667.38"/>
		<circle id="2149" cx="549.807" cy="667.36"/>
		<circle id="2150" cx="556.288" cy="667.341"/>
		<circle id="2151" cx="562.769" cy="667.422"/>
		<circle id="2152" cx="569.25" cy="667.403"/>
		<circle id="2153" cx="575.73" cy="667.383"/>
		<circle id="2160" cx="584.149" cy="662.747"/>
		<circle id="2161" cx="590.438" cy="662.735"/>
		<circle id="2162" cx="596.726" cy="662.724"/>
		<circle id="2163" cx="603.014" cy="662.712"/>
		<circle id="2164" cx="609.303" cy="662.7"/>
		<circle id="2165" cx="615.591" cy="662.689"/>
		<circle id="2166" cx="621.879" cy="662.777"/>
		<circle id="2167" cx="628.168" cy="662.765"/>
		<circle id="2168" cx="634.456" cy="662.754"/>
		<circle id="2169" cx="640.745" cy="662.742"/>
		<circle id="2170" cx="647.033" cy="662.731"/>
		<circle id="2171" cx="653.321" cy="662.719"/>
		<circle id="2172" cx="659.61" cy="662.707"/>
		<circle id="2173" cx="665.898" cy="662.696"/>
		<circle id="2174" cx="672.186" cy="662.684"/>
		<circle id="2175" cx="678.475" cy="662.772"/>
		<circle id="2176" cx="684.763" cy="662.761"/>
		<circle id="2177" cx="691.052" cy="662.749"/>
		<circle id="2178" cx="697.34" cy="662.738"/>
		<circle id="2179" cx="703.628" cy="662.726"/>
		<circle id="2180" cx="709.917" cy="662.714"/>
		<circle id="2181" cx="716.246" cy="662.744"/>
		<circle id="2182" cx="722.535" cy="662.732"/>
		<circle id="2183" cx="728.823" cy="662.721"/>
		<circle id="2184" cx="735.111" cy="662.709"/>
		<circle id="2185" cx="741.359" cy="662.756"/>
		<circle id="3100" cx="749.085" cy="665.633"/>
		<circle id="3101" cx="758.885" cy="683.783"/>
		<circle id="3102" cx="767.534" cy="692.715"/>
		<circle id="3103" cx="775.341" cy="692.723"/>
		<circle id="3104" cx="783.148" cy="692.729"/>
		<circle id="3105" cx="790.963" cy="692.744"/>
		<circle id="3106" cx="798.811" cy="696.27"/>
		<circle id="3107" cx="806.62" cy="696.279"/>
		<circle id="3108" cx="814.436" cy="696.295"/>
		<circle id="3109" cx="822.241" cy="696.3"/>
		<circle id="3110" cx="830.059" cy="696.318"/>
		<circle id="3111" cx="837.87" cy="696.329"/>
		<circle id="3112" cx="845.615" cy="696.274"/>
		<circle id="3113" cx="853.459" cy="696.318"/>
		<circle id="3114" cx="861.297" cy="696.256"/>
		<circle id="3115" cx="877.597" cy="689.979"/>
		<circle id="1" cx="898.597" cy="679.979"/>
		<circle id="1" cx="907.597" cy="683.979"/>
		<circle id="1" cx="917.597" cy="688.979"/>
		<circle id="1" cx="928.597" cy="693.979"/>
		<circle id="1" cx="938.597" cy="698.979"/>
		<circle id="1" cx="948.597" cy="703.979"/>
		<circle id="1" cx="955.597" cy="712.979"/>
		<circle id="1" cx="959.597" cy="721.979"/>
		<circle id="1" cx="963.597" cy="730.979"/>
		<circle id="1" cx="967.597" cy="739.979"/>
		<circle id="2" cx="1038.6" cy="727.979"/>
		<circle id="2" cx="1055.6" cy="723.979"/>
		<circle id="2" cx="1072.6" cy="719.979"/>
		<circle id="2" cx="1088.6" cy="715.979"/>
		<circle id="2" cx="1104.6" cy="711.979"/>
		<circle id="2" cx="1121.6" cy="707.979"/>
		<circle id="1202" cx="79.533" cy="619.463"/>
		<circle id="1203" cx="95.199" cy="619.463"/>
		<circle id="1204" cx="110.864" cy="619.463"/>
		<circle id="1205" cx="126.529" cy="619.463"/>
		<circle id="1206" cx="142.194" cy="619.463"/>
		<circle id="1207" cx="163.513" cy="623.506"/>
		<circle id="1208" cx="179.178" cy="623.506"/>
		<circle id="1209" cx="194.843" cy="623.506"/>
		<circle id="1210" cx="210.509" cy="623.506"/>
		<circle id="1211" cx="226.274" cy="623.506"/>
		<circle id="1212" cx="241.939" cy="623.506"/>
		<circle id="1250" cx="253.337" cy="624.704"/>
		<circle id="1251" cx="258.112" cy="624.679"/>
		<circle id="1252" cx="262.888" cy="624.655"/>
		<circle id="1253" cx="267.663" cy="624.631"/>
		<circle id="1254" cx="272.439" cy="624.706"/>
		<circle id="1255" cx="277.215" cy="624.682"/>
		<circle id="1256" cx="281.99" cy="624.657"/>
		<circle id="1257" cx="286.766" cy="624.633"/>
		<circle id="1258" cx="291.541" cy="624.709"/>
		<circle id="1259" cx="296.317" cy="624.684"/>
		<circle id="1260" cx="301.093" cy="624.66"/>
		<circle id="1261" cx="305.868" cy="624.635"/>
		<circle id="1262" cx="310.644" cy="624.711"/>
		<circle id="1263" cx="315.419" cy="624.687"/>
		<circle id="1264" cx="320.514" cy="624.662"/>
		<circle id="1265" cx="324.97" cy="624.638"/>
		<circle id="1266" cx="329.746" cy="624.713"/>
		<circle id="1267" cx="334.522" cy="624.689"/>
		<circle id="1268" cx="339.297" cy="624.664"/>
		<circle id="1269" cx="344.073" cy="624.64"/>
		<circle id="2207" cx="379.488" cy="619.051"/>
		<circle id="2208" cx="396.451" cy="619.051"/>
		<circle id="2209" cx="407.666" cy="623.682"/>
		<circle id="2210" cx="411.566" cy="623.682"/>
		<circle id="2211" cx="415.466" cy="623.682"/>
		<circle id="2212" cx="419.366" cy="623.682"/>
		<circle id="2213" cx="423.266" cy="623.682"/>
		<circle id="2214" cx="427.166" cy="623.682"/>
		<circle id="2220" cx="432.114" cy="629.718"/>
		<circle id="2221" cx="436.869" cy="629.773"/>
		<circle id="2222" cx="441.624" cy="629.728"/>
		<circle id="2223" cx="446.379" cy="629.783"/>
		<circle id="2224" cx="451.134" cy="629.738"/>
		<circle id="2225" cx="455.889" cy="629.693"/>
		<circle id="2226" cx="460.644" cy="629.748"/>
		<circle id="2227" cx="465.399" cy="629.703"/>
		<circle id="2228" cx="470.514" cy="629.758"/>
		<circle id="2229" cx="474.909" cy="629.713"/>
		<circle id="2230" cx="479.664" cy="629.768"/>
		<circle id="2231" cx="484.419" cy="629.723"/>
		<circle id="2240" cx="490.615" cy="624.5"/>
		<circle id="2241" cx="495.393" cy="624.478"/>
		<circle id="2242" cx="500.171" cy="624.555"/>
		<circle id="2243" cx="504.948" cy="624.533"/>
		<circle id="2244" cx="509.726" cy="624.511"/>
		<circle id="2245" cx="514.504" cy="624.488"/>
		<circle id="2246" cx="519.282" cy="624.566"/>
		<circle id="2247" cx="524.059" cy="624.544"/>
		<circle id="2248" cx="528.837" cy="624.522"/>
		<circle id="2249" cx="533.615" cy="624.499"/>
		<circle id="2250" cx="538.393" cy="624.477"/>
		<circle id="2251" cx="543.17" cy="624.555"/>
		<circle id="2252" cx="547.948" cy="624.533"/>
		<circle id="2253" cx="552.726" cy="624.511"/>
		<circle id="2254" cx="557.504" cy="624.488"/>
		<circle id="2255" cx="562.281" cy="624.566"/>
		<circle id="2256" cx="567.059" cy="624.544"/>
		<circle id="2257" cx="571.837" cy="624.521"/>
		<circle id="2258" cx="576.615" cy="624.499"/>
		<circle id="2260" cx="593.461" cy="624.625"/>
		<circle id="2261" cx="623.203" cy="624.625"/>
		<circle id="2262" cx="653.046" cy="624.625"/>
		<circle id="2290" cx="688.712" cy="620.118"/>
		<circle id="2291" cx="721.37" cy="620.118"/>
		<circle id="3400" cx="698.54" cy="600.368"/>
		<circle id="3401" cx="684.773" cy="587.795"/>
		<circle id="3402" cx="680.123" cy="581.99"/>
		<circle id="3403" cx="678.265" cy="575.829"/>
		<circle id="3404" cx="676.503" cy="569.64"/>
		<circle id="3405" cx="674.644" cy="563.48"/>
		<circle id="3406" cx="672.786" cy="557.319"/>
		<circle id="3407" cx="670.928" cy="551.159"/>
		<circle id="3408" cx="669.166" cy="544.97"/>
		<circle id="3409" cx="667.279" cy="538.714"/>
		<circle id="3410" cx="665.421" cy="532.553"/>
		<circle id="3411" cx="663.659" cy="526.365"/>
		<circle id="3412" cx="661.8" cy="520.204"/>
		<circle id="3600" cx="673.638" cy="504.657"/>
		<circle id="3601" cx="680.188" cy="503.941"/>
		<circle id="3602" cx="686.649" cy="503.335"/>
		<circle id="3603" cx="693.099" cy="502.63"/>
		<circle id="3604" cx="699.55" cy="501.925"/>
		<circle id="3605" cx="706.001" cy="501.22"/>
		<circle id="3606" cx="712.561" cy="500.604"/>
		<circle id="3607" cx="740.154" cy="492.709"/>
		<circle id="4110" cx="742.329" cy="513.051"/>
		<circle id="4111" cx="742.936" cy="519.719"/>
		<circle id="4112" cx="743.665" cy="526.543"/>
		<circle id="4113" cx="744.383" cy="533.267"/>
		<circle id="4114" cx="745.1" cy="539.992"/>
		<circle id="4115" cx="745.829" cy="546.816"/>
		<circle id="4116" cx="746.547" cy="553.541"/>
		<circle id="4117" cx="747.275" cy="560.365"/>
		<circle id="4220" cx="771.261" cy="557.821"/>
		<circle id="4219" cx="770.533" cy="550.997"/>
		<circle id="4218" cx="769.815" cy="544.272"/>
		<circle id="4217" cx="769.097" cy="537.548"/>
		<circle id="4216" cx="768.369" cy="530.723"/>
		<circle id="4215" cx="767.651" cy="523.999"/>
		<circle id="4214" cx="767.032" cy="517.263"/>
		<circle id="4213" cx="766.304" cy="510.439"/>
		<circle id="4212" cx="765.586" cy="503.715"/>
		<circle id="4211" cx="764.858" cy="496.89"/>
		<circle id="4210" cx="764.14" cy="490.166"/>
		<circle id="3800" cx="813.422" cy="488.089"/>
		<circle id="3801" cx="818.291" cy="487.54"/>
		<circle id="3802" cx="823.171" cy="487.089"/>
		<circle id="3803" cx="827.941" cy="486.55"/>
		<circle id="3804" cx="832.82" cy="486.1"/>
		<circle id="3805" cx="837.69" cy="485.55"/>
		<circle id="3806" cx="842.559" cy="485"/>
		<circle id="3807" cx="847.439" cy="484.55"/>
		<circle id="3808" cx="852.308" cy="484"/>
		<circle id="3809" cx="857.177" cy="483.45"/>
		<circle id="5110" cx="869.752" cy="523.276"/>
		<circle id="5111" cx="862.511" cy="525.463"/>
		<circle id="5112" cx="853.514" cy="527.746"/>
		<circle id="5113" cx="848.058" cy="529.933"/>
		<circle id="5114" cx="840.816" cy="532.121"/>
		<circle id="5115" cx="833.575" cy="534.308"/>
		<circle id="5116" cx="826.459" cy="536.562"/>
		<circle id="5117" cx="819.217" cy="538.749"/>
		<circle id="5118" cx="811.976" cy="540.936"/>
		<circle id="5119" cx="804.735" cy="543.124"/>
		<circle id="5210" cx="877.389" cy="548.13"/>
		<circle id="5211" cx="870.147" cy="550.318"/>
		<circle id="5212" cx="862.906" cy="552.505"/>
		<circle id="5213" cx="855.694" cy="554.788"/>
		<circle id="5214" cx="848.453" cy="556.975"/>
		<circle id="5215" cx="841.211" cy="559.162"/>
		<circle id="5216" cx="833.999" cy="561.445"/>
		<circle id="5217" cx="826.758" cy="563.632"/>
		<circle id="5218" cx="819.517" cy="565.82"/>
		<circle id="5219" cx="812.275" cy="568.007"/>
		<circle id="6110" cx="889.597" cy="587.919"/>
		<circle id="6111" cx="882.356" cy="590.107"/>
		<circle id="6112" cx="875.115" cy="592.294"/>
		<circle id="6113" cx="867.903" cy="594.577"/>
		<circle id="6114" cx="860.661" cy="596.764"/>
		<circle id="6115" cx="853.42" cy="598.951"/>
		<circle id="6116" cx="846.179" cy="601.139"/>
		<circle id="6117" cx="838.967" cy="603.422"/>
		<circle id="6118" cx="831.725" cy="605.609"/>
		<circle id="6119" cx="824.484" cy="607.796"/>
		<circle id="6210" cx="897.138" cy="612.803"/>
		<circle id="6211" cx="889.897" cy="614.99"/>
		<circle id="6212" cx="882.655" cy="617.177"/>
		<circle id="6213" cx="873.514" cy="619.46"/>
		<circle id="6214" cx="866.514" cy="621.618"/>
		<circle id="6215" cx="861.056" cy="623.806"/>
		<circle id="6216" cx="853.815" cy="625.993"/>
		<circle id="6217" cx="844.514" cy="628.276"/>
		<circle id="6218" cx="839.362" cy="630.463"/>
		<circle id="6219" cx="832.12" cy="632.65"/>
		<circle id="7200" cx="923.9" cy="626.455"/>
		<circle id="7201" cx="952.505" cy="612.538"/>
		<circle id="7202" cx="981.199" cy="598.578"/>
		<circle id="7203" cx="1009.76" cy="584.571"/>
		<circle id="7204" cx="1038.45" cy="570.61"/>
		<circle id="7205" cx="1071.11" cy="558.485"/>
		<circle id="7206" cx="1104.98" cy="569.636"/>
		<circle id="7207" cx="1115.72" cy="602.623"/>
		<circle id="3201" cx="726.046" cy="600.368"/>
	</g>
</svg>